<?xml version="1.0" encoding="UTF-8" standalone="no"?>
<!-- Created with Inkscape (http://www.inkscape.org/) -->

<svg
   width="210mm"
   height="297mm"
   viewBox="0 0 210 297"
   version="1.1"
   id="svg5"
   inkscape:version="1.2 (1:1.2.1+202207142221+cd75a1ee6d)"
   sodipodi:docname="star-petals.svg"
   xmlns:inkscape="http://www.inkscape.org/namespaces/inkscape"
   xmlns:sodipodi="http://sodipodi.sourceforge.net/DTD/sodipodi-0.dtd"
   xmlns="http://www.w3.org/2000/svg"
   xmlns:svg="http://www.w3.org/2000/svg">
  <sodipodi:namedview
     id="namedview7"
     pagecolor="#ffffff"
     bordercolor="#666666"
     borderopacity="1.0"
     inkscape:showpageshadow="2"
     inkscape:pageopacity="0.0"
     inkscape:pagecheckerboard="0"
     inkscape:deskcolor="#d1d1d1"
     inkscape:document-units="mm"
     showgrid="false"
     showguides="true"
     inkscape:zoom="1.6819304"
     inkscape:cx="452.45629"
     inkscape:cy="589.79848"
     inkscape:window-width="3840"
     inkscape:window-height="2088"
     inkscape:window-x="1920"
     inkscape:window-y="35"
     inkscape:window-maximized="1"
     inkscape:current-layer="layer1">
    <sodipodi:guide
       position="105,167.968"
       orientation="-1,0"
       id="guide234"
       inkscape:locked="false"
       inkscape:label=""
       inkscape:color="rgb(0,134,229)" />
    <sodipodi:guide
       position="100.11104,148.5"
       orientation="0,1"
       id="guide236"
       inkscape:locked="false"
       inkscape:label=""
       inkscape:color="rgb(0,134,229)" />
  </sodipodi:namedview>
  <defs
     id="defs2" />
  <g
     inkscape:label="Calque 1"
     inkscape:groupmode="layer"
     id="layer1">
    <path
       style="fill:none;fill-rule:evenodd;stroke:#b3b3b3;stroke-width:0.264583;stroke-linecap:butt;stroke-linejoin:miter;stroke-dasharray:none;stroke-opacity:1"
       d="M -44.999996,118.5172 H 255"
       id="path417" />
    <path
       style="fill:none;fill-rule:evenodd;stroke:#b3b3b3;stroke-width:0.264583;stroke-linecap:butt;stroke-linejoin:miter;stroke-dasharray:none;stroke-opacity:1"
       d="M -44.999998,178.48283 H 255"
       id="path419" />
    <path
       style="fill:none;fill-rule:evenodd;stroke:#b3b3b3;stroke-width:0.264583;stroke-linecap:butt;stroke-linejoin:miter;stroke-dasharray:none;stroke-opacity:1"
       d="M 75.017187,-4.489989e-6 V 296.99999"
       id="path421" />
    <path
       style="fill:none;fill-rule:evenodd;stroke:#b3b3b3;stroke-width:0.264583;stroke-linecap:butt;stroke-linejoin:miter;stroke-dasharray:none;stroke-opacity:1"
       d="M 134.98283,-1.499998 V 298.5"
       id="path423" />
    <path
       style="fill:none;fill-rule:evenodd;stroke:#b3b3b3;stroke-width:0.264583;stroke-linecap:butt;stroke-linejoin:miter;stroke-dasharray:none;stroke-opacity:1"
       d="M -22.267056,233.36497 189.86498,21.232942"
       id="path492" />
    <path
       style="fill:none;fill-rule:evenodd;stroke:#b3b3b3;stroke-width:0.264583;stroke-linecap:butt;stroke-linejoin:miter;stroke-dasharray:none;stroke-opacity:1"
       d="M 20.135047,275.76708 232.26708,63.635045"
       id="path494" />
    <path
       style="fill:none;fill-rule:evenodd;stroke:#b3b3b3;stroke-width:0.264583;stroke-linecap:butt;stroke-linejoin:miter;stroke-dasharray:none;stroke-opacity:1"
       d="M -21.206411,64.69569 188.8043,274.7064"
       id="path496" />
    <path
       style="fill:none;fill-rule:evenodd;stroke:#b3b3b3;stroke-width:0.264583;stroke-linecap:butt;stroke-linejoin:miter;stroke-dasharray:none;stroke-opacity:1"
       d="M 20.135047,21.232922 232.26708,233.36495"
       id="path498" />
    <path
       style="fill:none;fill-rule:evenodd;stroke:#b3b3b3;stroke-width:0.264583;stroke-linecap:butt;stroke-linejoin:miter;stroke-dasharray:none;stroke-opacity:1"
       d="M -22.108005,63.396991 255.05585,178.20202"
       id="path512" />
    <path
       style="fill:none;fill-rule:evenodd;stroke:#b3b3b3;stroke-width:0.264583;stroke-linecap:butt;stroke-linejoin:miter;stroke-dasharray:none;stroke-opacity:1"
       d="M -45.05586,118.79801 232.108,233.60304"
       id="path514" />
    <path
       style="fill:none;fill-rule:evenodd;stroke:#b3b3b3;stroke-width:0.264583;stroke-linecap:butt;stroke-linejoin:miter;stroke-dasharray:none;stroke-opacity:1"
       d="M 134.12798,-0.17004052 20.471007,274.22218"
       id="path516" />
    <path
       style="fill:none;fill-rule:evenodd;stroke:#b3b3b3;stroke-width:0.264583;stroke-linecap:butt;stroke-linejoin:miter;stroke-dasharray:none;stroke-opacity:1"
       d="M 190.10304,21.392004 75.298008,298.55586"
       id="path518" />
    <path
       style="fill:none;fill-rule:evenodd;stroke:#b3b3b3;stroke-width:0.264583;stroke-linecap:butt;stroke-linejoin:miter;stroke-dasharray:none;stroke-opacity:1"
       d="M -45.055848,178.20201 232.10801,63.396986"
       id="path522" />
    <path
       style="fill:none;fill-rule:evenodd;stroke:#b3b3b3;stroke-width:0.264583;stroke-linecap:butt;stroke-linejoin:miter;stroke-dasharray:none;stroke-opacity:1"
       d="M -22.107996,233.60303 255.05586,118.798"
       id="path524" />
    <path
       style="fill:none;fill-rule:evenodd;stroke:#b3b3b3;stroke-width:0.264583;stroke-linecap:butt;stroke-linejoin:miter;stroke-dasharray:none;stroke-opacity:1"
       d="M 20.471001,22.777807 134.12798,297.17002"
       id="path526" />
    <path
       style="fill:none;fill-rule:evenodd;stroke:#b3b3b3;stroke-width:0.264583;stroke-linecap:butt;stroke-linejoin:miter;stroke-dasharray:none;stroke-opacity:1"
       d="M 75.298008,-1.5558642 190.10304,275.60799"
       id="path528" />
    <path
       style="fill:none;fill-rule:evenodd;stroke:#ff0000;stroke-width:0.26458333;stroke-linecap:butt;stroke-linejoin:miter;stroke-opacity:1;stroke-dasharray:none"
       d="M 105,0 V 297"
       id="path534" />
    <path
       style="fill:none;fill-rule:evenodd;stroke:#ff0000;stroke-width:0.26458333;stroke-linecap:butt;stroke-linejoin:miter;stroke-opacity:1;stroke-dasharray:none"
       d="m -43.5,148.5 h 297"
       id="path536" />
    <path
       style="fill:none;fill-rule:evenodd;stroke:#ff0000;stroke-width:0.26458333;stroke-linecap:butt;stroke-linejoin:miter;stroke-opacity:1;stroke-dasharray:none"
       d="M 210.00536,43.494643 -0.00535701,253.50536"
       id="path538" />
    <path
       style="fill:none;fill-rule:evenodd;stroke:#ff0000;stroke-width:0.26458333;stroke-linecap:butt;stroke-linejoin:miter;stroke-opacity:1;stroke-dasharray:none"
       d="M -0.00535701,43.494643 210.00536,253.50536"
       id="path540" />
    <path
       style="fill:none;fill-rule:evenodd;stroke:#ff0000;stroke-width:0.264583;stroke-linecap:butt;stroke-linejoin:miter;stroke-dasharray:none;stroke-opacity:1"
       d="M 161.82849,11.303889 48.17151,285.69611"
       id="path548" />
    <path
       style="fill:none;fill-rule:evenodd;stroke:#ff0000;stroke-width:0.264583;stroke-linecap:butt;stroke-linejoin:miter;stroke-dasharray:none;stroke-opacity:1"
       d="M -32.196111,91.67151 242.19611,205.32849"
       id="path550" />
    <path
       style="fill:none;fill-rule:evenodd;stroke:#ff0000;stroke-width:0.264583;stroke-linecap:butt;stroke-linejoin:miter;stroke-dasharray:none;stroke-opacity:1"
       d="M 242.19611,91.671511 -32.196112,205.32849"
       id="path552" />
    <path
       style="fill:none;fill-rule:evenodd;stroke:#ff0000;stroke-width:0.264583;stroke-linecap:butt;stroke-linejoin:miter;stroke-dasharray:none;stroke-opacity:1"
       d="M 48.17151,11.303889 161.82849,285.69611"
       id="path554" />
    <path
       style="fill:none;fill-rule:evenodd;stroke:#000000;stroke-width:0.79375;stroke-linecap:butt;stroke-linejoin:miter;stroke-opacity:1;stroke-dasharray:none"
       d="m 79.5818,165.4839 -4.564613,-4.56462 v -6.45533 L 72.546836,148.5 l 2.470351,-5.96395 v -6.45532 l 4.564597,-4.5646 2.470359,-5.96397 5.96397,-2.47036 4.564602,-4.5646 h 6.455323 l 5.963952,-2.47035 5.96396,2.47035 h 6.45537 l 4.56464,4.56464 5.96392,2.47033 2.47034,5.96392 4.56461,4.56461 v 6.45534 l 2.47035,5.96396 -2.47035,5.96395 v 6.45534 l -4.56462,4.56462 -2.47034,5.96395 -5.96396,2.47035 -4.56462,4.56462 h -6.45535 L 105,180.95318 99.036043,178.48283 h -6.455314 l -4.564597,-4.5646 -5.963976,-2.47036 -2.470356,-5.96397"
       id="path532" />
    <path
       style="fill:none;fill-rule:evenodd;stroke:#000000;stroke-width:0.79375;stroke-linecap:butt;stroke-linejoin:miter;stroke-opacity:1;stroke-dasharray:none"
       d="m 92.58071,178.48281 6.455331,2e-5 5.963959,2.47034 -7.034953,2.91398 z"
       id="path618" />
    <path
       style="fill:none;fill-rule:evenodd;stroke:#000000;stroke-width:0.79375;stroke-linecap:butt;stroke-linejoin:miter;stroke-opacity:1;stroke-dasharray:none"
       d="m 105,116.04685 7.03499,-2.91399 5.38429,5.38434 h -6.45533 z"
       id="path620" />
    <path
       style="fill:none;fill-rule:evenodd;stroke:#000000;stroke-width:0.79375;stroke-linecap:butt;stroke-linejoin:miter;stroke-opacity:1;stroke-dasharray:none"
       d="m 134.98279,160.91929 2e-5,-6.45533 2.47034,-5.96396 2.91398,7.03495 z"
       id="path626" />
    <path
       style="fill:none;fill-rule:evenodd;stroke:#000000;stroke-width:0.79375;stroke-linecap:butt;stroke-linejoin:miter;stroke-opacity:1;stroke-dasharray:none"
       d="m 72.54683,148.5 -2.91399,-7.03499 5.38434,-5.38429 v 6.45533 z"
       id="path628" />
    <path
       style="fill:none;fill-rule:evenodd;stroke:#000000;stroke-width:0.79375;stroke-linecap:butt;stroke-linejoin:miter;stroke-opacity:1;stroke-dasharray:none"
       d="m 117.41928,178.48281 4.56462,-4.5646 5.96395,-2.47036 -2.91396,7.03496 z"
       id="path632" />
    <path
       style="fill:none;fill-rule:evenodd;stroke:#000000;stroke-width:0.79375;stroke-linecap:butt;stroke-linejoin:miter;stroke-opacity:1;stroke-dasharray:none"
       d="m 82.052155,125.55215 2.913987,-7.03499 7.614571,3e-5 -4.564608,4.56461 z"
       id="path634" />
    <path
       style="fill:none;fill-rule:evenodd;stroke:#000000;stroke-width:0.79375;stroke-linecap:butt;stroke-linejoin:miter;stroke-opacity:1;stroke-dasharray:none"
       d="m 134.98279,136.08073 -4.5646,-4.56463 -2.47036,-5.96395 7.03496,2.91397 z"
       id="path638" />
    <path
       style="fill:none;fill-rule:evenodd;stroke:#000000;stroke-width:0.79375;stroke-linecap:butt;stroke-linejoin:miter;stroke-opacity:1;stroke-dasharray:none"
       d="m 82.052133,171.44785 -7.034991,-2.91398 3.6e-5,-7.61458 4.564607,4.56461 z"
       id="path640" />
    <path
       style="fill:none;fill-rule:evenodd;stroke:#000000;stroke-width:0.79375;stroke-linecap:butt;stroke-linejoin:miter;stroke-opacity:1;stroke-dasharray:none"
       d="m 82.052151,171.44785 5.963941,2.47037 4.564621,4.5646 -7.614581,1e-5 z"
       id="path644" />
    <path
       style="fill:none;fill-rule:evenodd;stroke:#000000;stroke-width:0.79375;stroke-linecap:butt;stroke-linejoin:miter;stroke-opacity:1;stroke-dasharray:none"
       d="m 117.41929,118.5172 7.61462,0 2.91393,7.03496 -5.96394,-2.47035 z"
       id="path646" />
    <path
       style="fill:none;fill-rule:evenodd;stroke:#000000;stroke-width:0.79375;stroke-linecap:butt;stroke-linejoin:miter;stroke-opacity:1;stroke-dasharray:none"
       d="m 127.94783,171.44785 2.47037,-5.96394 4.5646,-4.56462 1e-5,7.61458 z"
       id="path650" />
    <path
       style="fill:none;fill-rule:evenodd;stroke:#000000;stroke-width:0.79375;stroke-linecap:butt;stroke-linejoin:miter;stroke-opacity:1;stroke-dasharray:none"
       d="m 75.017184,136.08071 -2e-6,-7.61461 7.03496,-2.91394 -2.470348,5.96394 z"
       id="path652" />
    <path
       style="fill:none;fill-rule:evenodd;stroke:#000000;stroke-width:0.79375;stroke-linecap:butt;stroke-linejoin:miter;stroke-opacity:1;stroke-dasharray:none"
       d="m 104.99999,180.95315 5.96396,-2.47033 6.45533,-1e-5 -5.38431,5.38433 z"
       id="path656" />
    <path
       style="fill:none;fill-rule:evenodd;stroke:#000000;stroke-width:0.79375;stroke-linecap:butt;stroke-linejoin:miter;stroke-opacity:1;stroke-dasharray:none"
       d="m 92.580711,118.51719 5.384348,-5.38435 7.034931,2.914 -5.963946,2.47035 z"
       id="path658" />
    <path
       style="fill:none;fill-rule:evenodd;stroke:#000000;stroke-width:0.79375;stroke-linecap:butt;stroke-linejoin:miter;stroke-opacity:1;stroke-dasharray:none"
       d="m 137.45313,148.50002 -2.47033,-5.96395 -1e-5,-6.45534 5.38432,5.38432 z"
       id="path662" />
    <path
       style="fill:none;fill-rule:evenodd;stroke:#000000;stroke-width:0.79375;stroke-linecap:butt;stroke-linejoin:miter;stroke-opacity:1;stroke-dasharray:none"
       d="m 75.017167,160.9193 -5.38435,-5.38435 2.914003,-7.03493 2.470348,5.96395 z"
       id="path664" />
    <path
       style="fill:none;fill-rule:evenodd;stroke:#ff00ff;stroke-width:0.264583px;stroke-linecap:butt;stroke-linejoin:miter;stroke-opacity:1"
       d="M 97.965058,298.5 V -1.5"
       id="path1337" />
    <path
       style="fill:none;fill-rule:evenodd;stroke:#ff00ff;stroke-width:0.264582px;stroke-linecap:butt;stroke-linejoin:miter;stroke-opacity:1"
       d="M 112.03498,298.5 V -1.5"
       id="path1339" />
  </g>
</svg>
